{
  "title": "CentOS 7 sandbox",
  "description": "",
  "difficulty": "Beginner",
  "time": "60 minutes",
  "details": {
    "steps": [
      {
        "title": "Step 1",
        "text": "step1.md"
      }
    ],
    "intro": {
      "text": "intro.md"
    },
    "finish": {
      "text": "finish.md"
    }
  },
  "environment": {
    "uilayout": "terminal"
  },
  "backend": {
    "imageid": "centos-vm"
  }
}